\relax 
\providecommand\hyper@newdestlabel[2]{}
\providecommand\HyperFirstAtBeginDocument{\AtBeginDocument}
\HyperFirstAtBeginDocument{\ifx\hyper@anchor\@undefined
\global\let\oldcontentsline\contentsline
\gdef\contentsline#1#2#3#4{\oldcontentsline{#1}{#2}{#3}}
\global\let\oldnewlabel\newlabel
\gdef\newlabel#1#2{\newlabelxx{#1}#2}
\gdef\newlabelxx#1#2#3#4#5#6{\oldnewlabel{#1}{{#2}{#3}}}
\AtEndDocument{\ifx\hyper@anchor\@undefined
\let\contentsline\oldcontentsline
\let\newlabel\oldnewlabel
\fi}
\fi}
\global\let\hyper@last\relax 
\gdef\HyperFirstAtBeginDocument#1{#1}
\providecommand\HyField@AuxAddToFields[1]{}
\providecommand\HyField@AuxAddToCoFields[2]{}
\@writefile{nav}{\headcommand {\slideentry {0}{0}{1}{1/1}{}{0}}}
\@writefile{nav}{\headcommand {\beamer@framepages {1}{1}}}
\@writefile{nav}{\headcommand {\slideentry {0}{0}{2}{2/2}{}{0}}}
\@writefile{nav}{\headcommand {\beamer@framepages {2}{2}}}
\@writefile{toc}{\beamer@sectionintoc {1}{Introduction}{3}{0}{1}}
\@writefile{nav}{\headcommand {\beamer@sectionpages {1}{2}}}
\@writefile{nav}{\headcommand {\beamer@subsectionpages {1}{2}}}
\@writefile{nav}{\headcommand {\sectionentry {1}{Introduction}{3}{Introduction}{0}}}
\@writefile{nav}{\headcommand {\slideentry {1}{0}{1}{3/4}{}{0}}}
\@writefile{nav}{\headcommand {\beamer@framepages {3}{4}}}
\@writefile{toc}{\beamer@sectionintoc {2}{The Laplacian Problem}{5}{0}{2}}
\@writefile{nav}{\headcommand {\beamer@sectionpages {3}{4}}}
\@writefile{nav}{\headcommand {\beamer@subsectionpages {3}{4}}}
\@writefile{nav}{\headcommand {\sectionentry {2}{The Laplacian Problem}{5}{The Laplacian Problem}{0}}}
\@writefile{nav}{\headcommand {\slideentry {2}{0}{1}{5/7}{}{0}}}
\@writefile{nav}{\headcommand {\beamer@framepages {5}{7}}}
\@writefile{nav}{\headcommand {\slideentry {2}{0}{2}{8/10}{}{0}}}
\@writefile{nav}{\headcommand {\beamer@framepages {8}{10}}}
\@writefile{toc}{\beamer@sectionintoc {3}{Laplacian and Random Walks}{11}{0}{3}}
\@writefile{nav}{\headcommand {\beamer@sectionpages {5}{10}}}
\@writefile{nav}{\headcommand {\beamer@subsectionpages {5}{10}}}
\@writefile{nav}{\headcommand {\sectionentry {3}{Laplacian and Random Walks}{11}{Laplacian and Random Walks}{0}}}
\@writefile{nav}{\headcommand {\slideentry {3}{0}{1}{11/12}{}{0}}}
\@writefile{nav}{\headcommand {\beamer@framepages {11}{12}}}
\@writefile{nav}{\headcommand {\slideentry {3}{0}{2}{13/16}{}{0}}}
\@writefile{nav}{\headcommand {\beamer@framepages {13}{16}}}
\@writefile{nav}{\headcommand {\slideentry {3}{0}{3}{17/19}{}{0}}}
\@writefile{nav}{\headcommand {\beamer@framepages {17}{19}}}
\@writefile{nav}{\headcommand {\slideentry {3}{0}{4}{20/21}{}{0}}}
\@writefile{nav}{\headcommand {\beamer@framepages {20}{21}}}
\@writefile{nav}{\headcommand {\slideentry {3}{0}{5}{22/25}{}{0}}}
\@writefile{nav}{\headcommand {\beamer@framepages {22}{25}}}
\@writefile{nav}{\headcommand {\slideentry {3}{0}{6}{26/29}{}{0}}}
\@writefile{nav}{\headcommand {\beamer@framepages {26}{29}}}
\@writefile{toc}{\beamer@sectionintoc {4}{Current Work}{30}{0}{4}}
\@writefile{nav}{\headcommand {\beamer@sectionpages {11}{29}}}
\@writefile{nav}{\headcommand {\beamer@subsectionpages {11}{29}}}
\@writefile{nav}{\headcommand {\sectionentry {4}{Current Work}{30}{Current Work}{0}}}
\@writefile{nav}{\headcommand {\slideentry {4}{0}{1}{30/34}{}{0}}}
\@writefile{nav}{\headcommand {\beamer@framepages {30}{34}}}
\@writefile{nav}{\headcommand {\slideentry {4}{0}{2}{35/35}{}{0}}}
\@writefile{nav}{\headcommand {\beamer@framepages {35}{35}}}
\@writefile{nav}{\headcommand {\slideentry {4}{0}{3}{36/36}{}{0}}}
\@writefile{nav}{\headcommand {\beamer@framepages {36}{36}}}
\@writefile{nav}{\headcommand {\slideentry {4}{0}{4}{37/38}{}{0}}}
\@writefile{nav}{\headcommand {\beamer@framepages {37}{38}}}
\@writefile{nav}{\headcommand {\slideentry {4}{0}{5}{39/39}{}{0}}}
\@writefile{nav}{\headcommand {\beamer@framepages {39}{39}}}
\@writefile{nav}{\headcommand {\slideentry {4}{0}{6}{40/40}{}{0}}}
\@writefile{nav}{\headcommand {\beamer@framepages {40}{40}}}
\@writefile{nav}{\headcommand {\slideentry {4}{0}{7}{41/41}{}{0}}}
\@writefile{nav}{\headcommand {\beamer@framepages {41}{41}}}
\@writefile{nav}{\headcommand {\slideentry {4}{0}{8}{42/42}{}{0}}}
\@writefile{nav}{\headcommand {\beamer@framepages {42}{42}}}
\@writefile{toc}{\beamer@sectionintoc {5}{Readings and Future Work}{43}{0}{5}}
\@writefile{nav}{\headcommand {\beamer@sectionpages {30}{42}}}
\@writefile{nav}{\headcommand {\beamer@subsectionpages {30}{42}}}
\@writefile{nav}{\headcommand {\sectionentry {5}{Readings and Future Work}{43}{Readings and Future Work}{0}}}
\@writefile{nav}{\headcommand {\slideentry {5}{0}{1}{43/43}{}{0}}}
\@writefile{nav}{\headcommand {\beamer@framepages {43}{43}}}
\@writefile{nav}{\headcommand {\beamer@partpages {1}{43}}}
\@writefile{nav}{\headcommand {\beamer@subsectionpages {43}{43}}}
\@writefile{nav}{\headcommand {\beamer@sectionpages {43}{43}}}
\@writefile{nav}{\headcommand {\beamer@documentpages {43}}}
\@writefile{nav}{\headcommand {\gdef \inserttotalframenumber {20}}}
\gdef \@abspage@last{43}
