\beamer@sectionintoc {1}{Introduction}{3}{0}{1}
\beamer@sectionintoc {2}{The Laplacian Problem}{5}{0}{2}
\beamer@sectionintoc {3}{Laplacian and Random Walks}{11}{0}{3}
\beamer@sectionintoc {4}{Current Work}{30}{0}{4}
\beamer@sectionintoc {5}{Readings and Future Work}{43}{0}{5}
